{
  "name": "ZCPListView",
  "version": "0.0.1",
  "summary": "It`s a UITableView util framework.",
  "description": "It`s a UITableView util framework.",
  "homepage": "https://gitlab.com/Malygos/ZCPListView_iOS",
  "license": {
    "type": "MIT",
    "file": "LICENSE"
  },
  "authors": {
    "朱超鹏": "z164757979@163.com"
  },
  "source": {
    "git": "https://gitlab.com/Malygos/ZCPListView_iOS.git",
    "tag": "0.0.1"
  },
  "platforms": {
    "ios": "9.0"
  },
  "frameworks": [
    "Foundation",
    "UIKit"
  ],
  "vendored_frameworks": "Framework/ZCPListView.framework"
}
